%YAML 1.1
%TAG !u! tag:unity3d.com,2011:
--- !u!1 &503293868064677646
GameObject:
  m_ObjectHideFlags: 0
  m_CorrespondingSourceObject: {fileID: 0}
  m_PrefabInstance: {fileID: 0}
  m_PrefabAsset: {fileID: 0}
  serializedVersion: 6
  m_Component:
  - component: {fileID: 4446352688276651495}
  - component: {fileID: 3798615249617470726}
  m_Layer: 31
  m_Name: Grass Platform
  m_TagString: Untagged
  m_Icon: {fileID: 0}
  m_NavMeshLayer: 0
  m_StaticEditorFlags: 0
  m_IsActive: 1
--- !u!4 &4446352688276651495
Transform:
  m_ObjectHideFlags: 0
  m_CorrespondingSourceObject: {fileID: 0}
  m_PrefabInstance: {fileID: 0}
  m_PrefabAsset: {fileID: 0}
  m_GameObject: {fileID: 503293868064677646}
  m_LocalRotation: {x: 0, y: 0, z: 0, w: 1}
  m_LocalPosition: {x: 0, y: 0, z: 0}
  m_LocalScale: {x: 1, y: 1, z: 1}
  m_Children:
  - {fileID: 7084980129365488218}
  m_Father: {fileID: 0}
  m_RootOrder: 0
  m_LocalEulerAnglesHint: {x: 0, y: 0, z: 0}
--- !u!156049354 &3798615249617470726
Grid:
  m_ObjectHideFlags: 0
  m_CorrespondingSourceObject: {fileID: 0}
  m_PrefabInstance: {fileID: 0}
  m_PrefabAsset: {fileID: 0}
  m_GameObject: {fileID: 503293868064677646}
  m_Enabled: 1
  m_CellSize: {x: 1, y: 1, z: 0}
  m_CellGap: {x: 0, y: 0, z: 0}
  m_CellLayout: 0
  m_CellSwizzle: 0
--- !u!1 &1587729858610954951
GameObject:
  m_ObjectHideFlags: 0
  m_CorrespondingSourceObject: {fileID: 0}
  m_PrefabInstance: {fileID: 0}
  m_PrefabAsset: {fileID: 0}
  serializedVersion: 6
  m_Component:
  - component: {fileID: 7084980129365488218}
  - component: {fileID: 1739378265973191976}
  - component: {fileID: 5495904609633591023}
  m_Layer: 31
  m_Name: Layer1
  m_TagString: Untagged
  m_Icon: {fileID: 0}
  m_NavMeshLayer: 0
  m_StaticEditorFlags: 0
  m_IsActive: 1
--- !u!4 &7084980129365488218
Transform:
  m_ObjectHideFlags: 0
  m_CorrespondingSourceObject: {fileID: 0}
  m_PrefabInstance: {fileID: 0}
  m_PrefabAsset: {fileID: 0}
  m_GameObject: {fileID: 1587729858610954951}
  m_LocalRotation: {x: -0, y: -0, z: -0, w: 1}
  m_LocalPosition: {x: 0, y: 0, z: 0}
  m_LocalScale: {x: 1, y: 1, z: 1}
  m_Children: []
  m_Father: {fileID: 4446352688276651495}
  m_RootOrder: 0
  m_LocalEulerAnglesHint: {x: 0, y: 0, z: 0}
--- !u!1839735485 &1739378265973191976
Tilemap:
  m_ObjectHideFlags: 0
  m_CorrespondingSourceObject: {fileID: 0}
  m_PrefabInstance: {fileID: 0}
  m_PrefabAsset: {fileID: 0}
  m_GameObject: {fileID: 1587729858610954951}
  m_Enabled: 1
  m_Tiles:
  - first: {x: -1, y: -5, z: 0}
    second:
      serializedVersion: 2
      m_TileIndex: 20
      m_TileSpriteIndex: 20
      m_TileMatrixIndex: 0
      m_TileColorIndex: 0
      m_TileObjectToInstantiateIndex: 65535
      m_AllTileFlags: 1073741825
  - first: {x: 0, y: -5, z: 0}
    second:
      serializedVersion: 2
      m_TileIndex: 21
      m_TileSpriteIndex: 21
      m_TileMatrixIndex: 0
      m_TileColorIndex: 0
      m_TileObjectToInstantiateIndex: 65535
      m_AllTileFlags: 1073741825
  - first: {x: 1, y: -5, z: 0}
    second:
      serializedVersion: 2
      m_TileIndex: 22
      m_TileSpriteIndex: 22
      m_TileMatrixIndex: 0
      m_TileColorIndex: 0
      m_TileObjectToInstantiateIndex: 65535
      m_AllTileFlags: 1073741825
  - first: {x: -1, y: -4, z: 0}
    second:
      serializedVersion: 2
      m_TileIndex: 15
      m_TileSpriteIndex: 15
      m_TileMatrixIndex: 0
      m_TileColorIndex: 0
      m_TileObjectToInstantiateIndex: 65535
      m_AllTileFlags: 1073741825
  - first: {x: 0, y: -4, z: 0}
    second:
      serializedVersion: 2
      m_TileIndex: 16
      m_TileSpriteIndex: 16
      m_TileMatrixIndex: 0
      m_TileColorIndex: 0
      m_TileObjectToInstantiateIndex: 65535
      m_AllTileFlags: 1073741825
  - first: {x: 1, y: -4, z: 0}
    second:
      serializedVersion: 2
      m_TileIndex: 17
      m_TileSpriteIndex: 17
      m_TileMatrixIndex: 0
      m_TileColorIndex: 0
      m_TileObjectToInstantiateIndex: 65535
      m_AllTileFlags: 1073741825
  - first: {x: 2, y: -4, z: 0}
    second:
      serializedVersion: 2
      m_TileIndex: 18
      m_TileSpriteIndex: 18
      m_TileMatrixIndex: 0
      m_TileColorIndex: 0
      m_TileObjectToInstantiateIndex: 65535
      m_AllTileFlags: 1073741825
  - first: {x: 3, y: -4, z: 0}
    second:
      serializedVersion: 2
      m_TileIndex: 19
      m_TileSpriteIndex: 19
      m_TileMatrixIndex: 0
      m_TileColorIndex: 0
      m_TileObjectToInstantiateIndex: 65535
      m_AllTileFlags: 1073741825
  - first: {x: -1, y: -3, z: 0}
    second:
      serializedVersion: 2
      m_TileIndex: 10
      m_TileSpriteIndex: 10
      m_TileMatrixIndex: 0
      m_TileColorIndex: 0
      m_TileObjectToInstantiateIndex: 65535
      m_AllTileFlags: 1073741825
  - first: {x: 0, y: -3, z: 0}
    second:
      serializedVersion: 2
      m_TileIndex: 11
      m_TileSpriteIndex: 11
      m_TileMatrixIndex: 0
      m_TileColorIndex: 0
      m_TileObjectToInstantiateIndex: 65535
      m_AllTileFlags: 1073741825
  - first: {x: 1, y: -3, z: 0}
    second:
      serializedVersion: 2
      m_TileIndex: 12
      m_TileSpriteIndex: 12
      m_TileMatrixIndex: 0
      m_TileColorIndex: 0
      m_TileObjectToInstantiateIndex: 65535
      m_AllTileFlags: 1073741825
  - first: {x: 2, y: -3, z: 0}
    second:
      serializedVersion: 2
      m_TileIndex: 13
      m_TileSpriteIndex: 13
      m_TileMatrixIndex: 0
      m_TileColorIndex: 0
      m_TileObjectToInstantiateIndex: 65535
      m_AllTileFlags: 1073741825
  - first: {x: 3, y: -3, z: 0}
    second:
      serializedVersion: 2
      m_TileIndex: 14
      m_TileSpriteIndex: 14
      m_TileMatrixIndex: 0
      m_TileColorIndex: 0
      m_TileObjectToInstantiateIndex: 65535
      m_AllTileFlags: 1073741825
  - first: {x: -1, y: -2, z: 0}
    second:
      serializedVersion: 2
      m_TileIndex: 5
      m_TileSpriteIndex: 5
      m_TileMatrixIndex: 0
      m_TileColorIndex: 0
      m_TileObjectToInstantiateIndex: 65535
      m_AllTileFlags: 1073741825
  - first: {x: 0, y: -2, z: 0}
    second:
      serializedVersion: 2
      m_TileIndex: 6
      m_TileSpriteIndex: 6
      m_TileMatrixIndex: 0
      m_TileColorIndex: 0
      m_TileObjectToInstantiateIndex: 65535
      m_AllTileFlags: 1073741825
  - first: {x: 1, y: -2, z: 0}
    second:
      serializedVersion: 2
      m_TileIndex: 7
      m_TileSpriteIndex: 7
      m_TileMatrixIndex: 0
      m_TileColorIndex: 0
      m_TileObjectToInstantiateIndex: 65535
      m_AllTileFlags: 1073741825
  - first: {x: 2, y: -2, z: 0}
    second:
      serializedVersion: 2
      m_TileIndex: 8
      m_TileSpriteIndex: 8
      m_TileMatrixIndex: 0
      m_TileColorIndex: 0
      m_TileObjectToInstantiateIndex: 65535
      m_AllTileFlags: 1073741825
  - first: {x: 3, y: -2, z: 0}
    second:
      serializedVersion: 2
      m_TileIndex: 9
      m_TileSpriteIndex: 9
      m_TileMatrixIndex: 0
      m_TileColorIndex: 0
      m_TileObjectToInstantiateIndex: 65535
      m_AllTileFlags: 1073741825
  - first: {x: -1, y: -1, z: 0}
    second:
      serializedVersion: 2
      m_TileIndex: 0
      m_TileSpriteIndex: 0
      m_TileMatrixIndex: 0
      m_TileColorIndex: 0
      m_TileObjectToInstantiateIndex: 65535
      m_AllTileFlags: 1073741825
  - first: {x: 0, y: -1, z: 0}
    second:
      serializedVersion: 2
      m_TileIndex: 1
      m_TileSpriteIndex: 1
      m_TileMatrixIndex: 0
      m_TileColorIndex: 0
      m_TileObjectToInstantiateIndex: 65535
      m_AllTileFlags: 1073741825
  - first: {x: 1, y: -1, z: 0}
    second:
      serializedVersion: 2
      m_TileIndex: 2
      m_TileSpriteIndex: 2
      m_TileMatrixIndex: 0
      m_TileColorIndex: 0
      m_TileObjectToInstantiateIndex: 65535
      m_AllTileFlags: 1073741825
  - first: {x: 2, y: -1, z: 0}
    second:
      serializedVersion: 2
      m_TileIndex: 3
      m_TileSpriteIndex: 3
      m_TileMatrixIndex: 0
      m_TileColorIndex: 0
      m_TileObjectToInstantiateIndex: 65535
      m_AllTileFlags: 1073741825
  - first: {x: 3, y: -1, z: 0}
    second:
      serializedVersion: 2
      m_TileIndex: 4
      m_TileSpriteIndex: 4
      m_TileMatrixIndex: 0
      m_TileColorIndex: 0
      m_TileObjectToInstantiateIndex: 65535
      m_AllTileFlags: 1073741825
  m_AnimatedTiles: {}
  m_TileAssetArray:
  - m_RefCount: 1
    m_Data: {fileID: 11400000, guid: d18f1a54993a94aa09ea8f3c98b5c239, type: 2}
  - m_RefCount: 1
    m_Data: {fileID: 11400000, guid: f24a5a6a720374b7f8fadfdbe29ff496, type: 2}
  - m_RefCount: 1
    m_Data: {fileID: 11400000, guid: 14443209bc5564ff390a6462d407a43c, type: 2}
  - m_RefCount: 1
    m_Data: {fileID: 11400000, guid: c1e69c35437da421ea13146d06501be8, type: 2}
  - m_RefCount: 1
    m_Data: {fileID: 11400000, guid: a80d0262716974272b66f315a8bb5486, type: 2}
  - m_RefCount: 1
    m_Data: {fileID: 11400000, guid: 2da318e761e78440697d7b9e114ed548, type: 2}
  - m_RefCount: 1
    m_Data: {fileID: 11400000, guid: 295dec0df189442c88c0a86bf8a79dc3, type: 2}
  - m_RefCount: 1
    m_Data: {fileID: 11400000, guid: f21549e1829784c81b5d523f8dcf11cb, type: 2}
  - m_RefCount: 1
    m_Data: {fileID: 11400000, guid: 2eac0c5c6fbd54cb5a35f01b8c2201d6, type: 2}
  - m_RefCount: 1
    m_Data: {fileID: 11400000, guid: b0c71508b766e4368b7d3f821a949f11, type: 2}
  - m_RefCount: 1
    m_Data: {fileID: 11400000, guid: 839613854d5b94a3eba1951afb3bd17f, type: 2}
  - m_RefCount: 1
    m_Data: {fileID: 11400000, guid: cacb982f48bd24114a0b5ef8043f1715, type: 2}
  - m_RefCount: 1
    m_Data: {fileID: 11400000, guid: 67b32840844764a56a2999caf9f86189, type: 2}
  - m_RefCount: 1
    m_Data: {fileID: 11400000, guid: 23b641d32c7c04333881358ed4212aa4, type: 2}
  - m_RefCount: 1
    m_Data: {fileID: 11400000, guid: 7bdf80859e7b14d9d8c9fbf6e7a84011, type: 2}
  - m_RefCount: 1
    m_Data: {fileID: 11400000, guid: fc475e7a591874d6e8e6b9d44e27ae3f, type: 2}
  - m_RefCount: 1
    m_Data: {fileID: 11400000, guid: 0132254a91de44eacaa3b3fb571cb469, type: 2}
  - m_RefCount: 1
    m_Data: {fileID: 11400000, guid: 339e4dea6dcee4bfaa19baee824a4d66, type: 2}
  - m_RefCount: 1
    m_Data: {fileID: 11400000, guid: 441487a2a2ac44b12b846b66063c59b4, type: 2}
  - m_RefCount: 1
    m_Data: {fileID: 11400000, guid: 9f5d4c98673984f8b8060f082103df78, type: 2}
  - m_RefCount: 1
    m_Data: {fileID: 11400000, guid: 7737da5d291e0437c8834f93eacc20a2, type: 2}
  - m_RefCount: 1
    m_Data: {fileID: 11400000, guid: d1c76d67bc53840dabc866d7e66db71e, type: 2}
  - m_RefCount: 1
    m_Data: {fileID: 11400000, guid: 493ffb93a4bea4867bd9c65014cafb8b, type: 2}
  m_TileSpriteArray:
  - m_RefCount: 1
    m_Data: {fileID: 21300000, guid: e163d577fcee4fa4398de6ae37f554d2, type: 3}
  - m_RefCount: 1
    m_Data: {fileID: 21300000, guid: 10f272208848a494e8ca07ca6444b9b6, type: 3}
  - m_RefCount: 1
    m_Data: {fileID: 21300000, guid: 3508f1573909af1428b1c44c1ec34c3c, type: 3}
  - m_RefCount: 1
    m_Data: {fileID: 21300000, guid: 646453e4dbe45ed48b872a05d8eefbd6, type: 3}
  - m_RefCount: 1
    m_Data: {fileID: 21300000, guid: 744be3976944b754bbe6492c94dc45e4, type: 3}
  - m_RefCount: 1
    m_Data: {fileID: 21300000, guid: 1728b528a1d879141b698788b6fd05ef, type: 3}
  - m_RefCount: 1
    m_Data: {fileID: 21300000, guid: 5b1fdc387a8505c4eaf48dd0d9872643, type: 3}
  - m_RefCount: 1
    m_Data: {fileID: 21300000, guid: 72f94200b0117034b90150a90daf551f, type: 3}
  - m_RefCount: 1
    m_Data: {fileID: 21300000, guid: 19dd3fac0d0a33f4f8b571941054e3f7, type: 3}
  - m_RefCount: 1
    m_Data: {fileID: 21300000, guid: dabe91581cff3fc4d8b2185a6476ef4f, type: 3}
  - m_RefCount: 1
    m_Data: {fileID: 21300000, guid: 9142a53b01f878444ae52a936564cbaa, type: 3}
  - m_RefCount: 1
    m_Data: {fileID: 21300000, guid: cfe4e5f21bb46a441b5fe85fa649b7cd, type: 3}
  - m_RefCount: 1
    m_Data: {fileID: 21300000, guid: 59c87abf501fa4647ae33e5dc7c36c94, type: 3}
  - m_RefCount: 1
    m_Data: {fileID: 21300000, guid: 6abc9dad9a9b7814dab6ea164a88d084, type: 3}
  - m_RefCount: 1
    m_Data: {fileID: 21300000, guid: 8faf69609c8162843a842b489d7f1954, type: 3}
  - m_RefCount: 1
    m_Data: {fileID: 21300000, guid: aef3744cdda296b4d98da1864f895442, type: 3}
  - m_RefCount: 1
    m_Data: {fileID: 21300000, guid: 997e20906b83b364a8856dc9ff5ded04, type: 3}
  - m_RefCount: 1
    m_Data: {fileID: 21300000, guid: e0889321147b6ef4b81402f1942265c6, type: 3}
  - m_RefCount: 1
    m_Data: {fileID: 21300000, guid: abc819e191dd6ff48b3f3883b97c7247, type: 3}
  - m_RefCount: 1
    m_Data: {fileID: 21300000, guid: 788a42c5674b6114ebaeb435f455bef7, type: 3}
  - m_RefCount: 1
    m_Data: {fileID: 21300000, guid: 5406f9bf740fe624fa198230efceebc4, type: 3}
  - m_RefCount: 1
    m_Data: {fileID: 21300000, guid: 7d6be741cc5c597469a6e466e5a62462, type: 3}
  - m_RefCount: 1
    m_Data: {fileID: 21300000, guid: cd0f98a1b9bcee44896e7f7bb37b6afe, type: 3}
  m_TileMatrixArray:
  - m_RefCount: 23
    m_Data:
      e00: 1
      e01: 0
      e02: 0
      e03: 0
      e10: 0
      e11: 1
      e12: 0
      e13: 0
      e20: 0
      e21: 0
      e22: 1
      e23: 0
      e30: 0
      e31: 0
      e32: 0
      e33: 1
  m_TileColorArray:
  - m_RefCount: 23
    m_Data: {r: 1, g: 1, b: 1, a: 1}
  m_TileObjectToInstantiateArray: []
  m_AnimationFrameRate: 1
  m_Color: {r: 1, g: 1, b: 1, a: 1}
  m_Origin: {x: -1, y: -5, z: 0}
  m_Size: {x: 5, y: 5, z: 1}
  m_TileAnchor: {x: 0.5, y: 0.5, z: 0}
  m_TileOrientation: 0
  m_TileOrientationMatrix:
    e00: 1
    e01: 0
    e02: 0
    e03: 0
    e10: 0
    e11: 1
    e12: 0
    e13: 0
    e20: 0
    e21: 0
    e22: 1
    e23: 0
    e30: 0
    e31: 0
    e32: 0
    e33: 1
--- !u!483693784 &5495904609633591023
TilemapRenderer:
  m_ObjectHideFlags: 0
  m_CorrespondingSourceObject: {fileID: 0}
  m_PrefabInstance: {fileID: 0}
  m_PrefabAsset: {fileID: 0}
  m_GameObject: {fileID: 1587729858610954951}
  m_Enabled: 0
  m_CastShadows: 0
  m_ReceiveShadows: 0
  m_DynamicOccludee: 0
  m_MotionVectors: 1
  m_LightProbeUsage: 0
  m_ReflectionProbeUsage: 0
  m_RayTracingMode: 0
  m_RenderingLayerMask: 1
  m_RendererPriority: 0
  m_Materials:
  - {fileID: 10754, guid: 0000000000000000f000000000000000, type: 0}
  m_StaticBatchInfo:
    firstSubMesh: 0
    subMeshCount: 0
  m_StaticBatchRoot: {fileID: 0}
  m_ProbeAnchor: {fileID: 0}
  m_LightProbeVolumeOverride: {fileID: 0}
  m_ScaleInLightmap: 1
  m_ReceiveGI: 1
  m_PreserveUVs: 0
  m_IgnoreNormalsForChartDetection: 0
  m_ImportantGI: 0
  m_StitchLightmapSeams: 1
  m_SelectedEditorRenderState: 0
  m_MinimumChartSize: 4
  m_AutoUVMaxDistance: 0.5
  m_AutoUVMaxAngle: 89
  m_LightmapParameters: {fileID: 0}
  m_SortingLayerID: 0
  m_SortingLayer: 0
  m_SortingOrder: 0
  m_ChunkSize: {x: 32, y: 32, z: 32}
  m_ChunkCullingBounds: {x: 0, y: 0, z: 0}
  m_MaxChunkCount: 16
  m_MaxFrameAge: 16
  m_SortOrder: 0
  m_Mode: 0
  m_DetectChunkCullingBounds: 0
  m_MaskInteraction: 0
--- !u!114 &8545128749767326442
MonoBehaviour:
  m_ObjectHideFlags: 0
  m_CorrespondingSourceObject: {fileID: 0}
  m_PrefabInstance: {fileID: 0}
  m_PrefabAsset: {fileID: 0}
  m_GameObject: {fileID: 0}
  m_Enabled: 1
  m_EditorHideFlags: 0
  m_Script: {fileID: 12395, guid: 0000000000000000e000000000000000, type: 0}
  m_Name: Palette Settings
  m_EditorClassIdentifier: 
  cellSizing: 0
